Simulate data to explore the effect of different parameters
…
             model_param = list(gamma_lx1 = 21, 
                                sigma2_lx1 = 1.5,
                                sigma2_ux = 0.2,
                                alpha_j2 = -0.93,
                                sigma2_j2 = 0.1,
                                sigma_j2lx1 = 0.2,
                                phi_x = 0.3),
             sample.nobs = 1000,
             na_pct = 0.3)
#> Parameter estimates for the data simulation are taken from the argument 'model_param'.
#> Warning: The following parameters are specified in the LCSM but no parameter estimates have been entered in 'model_param':
#> -  alpha_g2
#> -  sigma2_g2
#> -  sigma_g2lx1
#> # A tibble: 1,000 × 6
#>       id    x1    x2    x3    x4    x5
#>    <int> <dbl> <dbl> <dbl> <dbl> <dbl>
#>  1     1  22.1  21.1  20.6  18.7  NA  
#>  2     2  NA    NA    23.1  NA    26.1
#>  3     3  21.1  21.9  23.2  23.8  NA  
#>  4     4  20.0  19.6  18.1  16.5  16.6
#>  5     5  22.5  21.6  19.8  17.5  NA  
#>  6     6  21.6  22.5  23.6  NA    NA  
#>  7     7  21.5  21.0  20.8  20.3  20.9
#>  8     8  21.0  21.0  19.7  NA    16.0
#>  9     9  20.4  19.0  NA    14.0  10.1
#> 10    10  NA    21.3  23.7  26.1  29.3
#> # … with 990 more rows
…
